{
  "name": "Marktplatz",
  "integrations": {
    "cordova": {},
    "capacitor": {}
  },
  "type": "ionic-angular",
  "proxies": [
    {
      "path": "/v4",
      "proxyUrl": "https://api.bitcoin.de/v4"
    }
  ],
  "id": "de.bitcoin.mobile"
}
